Lab1
…
# A tibble: 6 × 12
  manufacturer model displ  year   cyl trans      drv      cty   hwy fl    class
  <chr>        <chr> <dbl> <int> <int> <chr>      <chr>  <int> <int> <chr> <chr>
1 audi         a4      1.8  1999     4 auto(l5)   front…    18    29 p     comp…
2 audi         a4      1.8  1999     4 manual(m5) front…    21    29 p     comp…
3 audi         a4      2    2008     4 manual(m6) front…    20    31 p     comp…
4 audi         a4      2    2008     4 auto(av)   front…    21    30 p     comp…
5 audi         a4      2.8  1999     6 auto(l5)   front…    16    26 p     comp…
6 audi         a4      2.8  1999     6 manual(m5) front…    18    26 p     comp…
# ℹ 1 more variable: fuel_category <chr>

mpg_fuel <- mpg_fuel |> mutate(trans_specific = str_split_i(trans, "\\(", 2), trans_specific = str_remove(trans_specific, "\\)"), trans = str_split_i(trans, "\\(", 1))
rename(mpg_fuel, trans_style = trans)

# A tibble: 234 × 13
   manufacturer model      displ  year   cyl trans_style drv     cty   hwy fl   
   <chr>        <chr>      <dbl> <int> <int> <chr>       <chr> <int> <int> <chr>
 1 audi         a4           1.8  1999     4 auto        fron…    18    29 p    
 2 audi         a4           1.8  1999     4 manual      fron…    21    29 p    
 3 audi         a4           2    2008     4 manual      fron…    20    31 p    
 4 audi         a4           2    2008     4 auto        fron…    21    30 p    
 5 audi         a4           2.8  1999     6 auto        fron…    16    26 p    
 6 audi         a4           2.8  1999     6 manual      fron…    18    26 p    
 7 audi         a4           3.1  2008     6 auto        fron…    18    27 p    
 8 audi         a4 quattro   1.8  1999     4 manual      four…    18    26 p    
 9 audi         a4 quattro   1.8  1999     4 auto        four…    16    25 p    
10 audi         a4 quattro   2    2008     4 manual      four…    20    28 p    
# ℹ 224 more rows
# ℹ 3 more variables: class <chr>, fuel_category <chr>, trans_specific <chr>
…
